Logistic Regression
…
types of prediction

“Link”: Predictions on the scale of the link function (log-odds for logistic regression).

“Response”: Predictions on the scale of the response variable (probabilities for logistic regression).

“Terms”: Contributions of each predictor variable to the linear prediction

log odds

predict_logodd <- augment(mlog1, type.predict = 'link') 
predict_logodd

# A tibble: 3,820 × 11
   dmdx    age gender   bmi totchol .fitted .resid     .hat .sigma     .cooksd
   <fct> <dbl> <fct>  <dbl>   <dbl>   <dbl>  <dbl>    <dbl>  <dbl>       <dbl>
 1 no       70 female  16.9    5.43   -1.99 -0.506 0.00217   0.813 0.0000594  
 2 no       20 male    18.0    5.13   -4.42 -0.154 0.000504  0.813 0.00000121 
 3 no       29 female  15.6    5.55   -4.40 -0.156 0.000455  0.813 0.00000112 
 4 no       25 male    18.9    4.01   -4.04 -0.187 0.000641  0.813 0.00000226 
 5 no       37 female  21.5    5.21   -3.39 -0.258 0.000519  0.813 0.00000351 
 6 no       43 female  21.3    6.19   -3.08 -0.299 0.000545  0.813 0.00000500 
 7 no       26 female  22.2    4.33   -3.91 -0.199 0.000518  0.813 0.00000208 
 8 no       28 female  15.4    5.84   -4.48 -0.150 0.000443  0.813 0.00000100 
 9 no       48 male    17.1    6.14   -2.97 -0.317 0.000923  0.813 0.00000951 
10 no       20 female  17.1    6.02   -4.77 -0.130 0.000376  0.813 0.000000636
# ℹ 3,810 more rows
# ℹ 1 more variable: .std.resid <dbl>

odds

odds ratio = exponentiate(log odds)

lets add a column for odds

predict_odds <- predict_logodd %>%
  mutate(odds = exp(.fitted))
predict_odds

# A tibble: 3,820 × 12
   dmdx    age gender   bmi totchol .fitted .resid     .hat .sigma     .cooksd
   <fct> <dbl> <fct>  <dbl>   <dbl>   <dbl>  <dbl>    <dbl>  <dbl>       <dbl>
 1 no       70 female  16.9    5.43   -1.99 -0.506 0.00217   0.813 0.0000594  
 2 no       20 male    18.0    5.13   -4.42 -0.154 0.000504  0.813 0.00000121 
 3 no       29 female  15.6    5.55   -4.40 -0.156 0.000455  0.813 0.00000112 
 4 no       25 male    18.9    4.01   -4.04 -0.187 0.000641  0.813 0.00000226 
 5 no       37 female  21.5    5.21   -3.39 -0.258 0.000519  0.813 0.00000351 
 6 no       43 female  21.3    6.19   -3.08 -0.299 0.000545  0.813 0.00000500 
 7 no       26 female  22.2    4.33   -3.91 -0.199 0.000518  0.813 0.00000208 
 8 no       28 female  15.4    5.84   -4.48 -0.150 0.000443  0.813 0.00000100 
 9 no       48 male    17.1    6.14   -2.97 -0.317 0.000923  0.813 0.00000951 
10 no       20 female  17.1    6.02   -4.77 -0.130 0.000376  0.813 0.000000636
# ℹ 3,810 more rows
# ℹ 2 more variables: .std.resid <dbl>, odds <dbl>

probability

Lets get the predicted probability for each observation

predict_prob <-augment(mlog1, type.predict = 'response', se.fit = TRUE) 
predict_prob

# A tibble: 3,820 × 11
   dmdx    age gender   bmi totchol .fitted .resid     .hat .sigma     .cooksd
   <fct> <dbl> <fct>  <dbl>   <dbl>   <dbl>  <dbl>    <dbl>  <dbl>       <dbl>
 1 no       70 female  16.9    5.43 0.120   -0.506 0.00217   0.813 0.0000594  
 2 no       20 male    18.0    5.13 0.0119  -0.154 0.000504  0.813 0.00000121 
 3 no       29 female  15.6    5.55 0.0121  -0.156 0.000455  0.813 0.00000112 
 4 no       25 male    18.9    4.01 0.0173  -0.187 0.000641  0.813 0.00000226 
 5 no       37 female  21.5    5.21 0.0327  -0.258 0.000519  0.813 0.00000351 
 6 no       43 female  21.3    6.19 0.0438  -0.299 0.000545  0.813 0.00000500 
 7 no       26 female  22.2    4.33 0.0197  -0.199 0.000518  0.813 0.00000208 
 8 no       28 female  15.4    5.84 0.0112  -0.150 0.000443  0.813 0.00000100 
 9 no       48 male    17.1    6.14 0.0489  -0.317 0.000923  0.813 0.00000951 
10 no       20 female  17.1    6.02 0.00839 -0.130 0.000376  0.813 0.000000636
# ℹ 3,810 more rows
# ℹ 1 more variable: .std.resid <dbl>
…
